"","Mean","SD","Naive SE","Time-series SE","2.5%","25%","50%","75%","97.5%","Effective N"
"nuAlpha",0.0066992,0.00040589,1.1717e-05,1.9171e-05,0.005931,0.006437,0.0067145,0.006948,0.007504,466.66
"nuEta",-0.79696,0.023463,0.00067732,0.0009083,-0.8421,-0.8126,-0.7971,-0.7814,-0.75097,869.81
"lambdaEta",-0.11256,0.0066446,0.00019181,0.00033767,-0.125,-0.117,-0.1126,-0.1086,-0.098997,462.15
"lambdaAlpha",-9.834e-05,0.00012805,3.6964e-06,5.7504e-06,-0.00038572,-0.00017987,-9.285e-05,-7.6243e-06,0.00015044,267.72
"aucPlacebo",3.5471,1.4098,0.040698,0.10682,1.806,2.598,3.2105,4.076,7.5869,72.479
"kel",0.028565,0.013497,0.00038964,0.00098656,0.0091079,0.01907,0.026075,0.035657,0.061544,105.53
"keqMinusKel",0.2536,0.37107,0.010712,0.01598,0.016431,0.11057,0.18015,0.26955,1.09,653.67
"phiEpsilon",0.14251,0.014918,0.00043063,0.00050074,0.1137,0.13248,0.1425,0.1528,0.1713,1321.6
"kappaEpsilon",1.4267,0.31768,0.0091705,0.010176,1.029,1.1858,1.371,1.5875,2.2321,1040.3
"phiEta",0.39525,0.075555,0.0021811,0.0028468,0.26587,0.34205,0.39095,0.4424,0.5568,767.65
"kappaEta",1.4016,0.45365,0.013096,0.013472,1.011,1.1287,1.288,1.5533,2.3382,1200
"phiAlpha",0.011798,0.0022834,6.5915e-05,0.00011377,0.0072349,0.01023,0.01177,0.01328,0.01648,328.47
"kappaAlpha",2.1093,7.3269,0.21151,0.67559,1.006,1.083,1.202,1.4075,3.4039,391.73
"psiEta",0.11747,0.015838,0.0004572,0.00045981,0.089437,0.1067,0.1165,0.12723,0.15031,1209.4
"psiAlpha",0.0010217,0.00072619,2.0963e-05,5.0186e-05,1.8939e-05,0.00047007,0.0009322,0.0014525,0.0027831,96.8
"beta",-0.1765,0.74219,0.021425,0.028412,-0.67266,-0.1259,-0.093055,-0.077293,-0.057177,661.94
"keq",0.28217,0.36647,0.010579,0.015475,0.073262,0.1412,0.20715,0.29242,1.111,681.73
"gamma[1]",0.17207,0.11005,0.0031768,0.0039656,0.016045,0.08672,0.1536,0.23842,0.43334,909.9
"gamma[2]",0.34141,0.14035,0.0040516,0.005037,0.076246,0.24057,0.3383,0.43022,0.6378,917.44
"gamma[3]",0.64002,0.31242,0.0090187,0.014688,0.1504,0.42943,0.6139,0.80705,1.3451,581.93
"eStar[1]",0.12427,0.010887,0.00031428,0.00045802,0.10209,0.1169,0.1245,0.1316,0.1457,661.47
"eStar[2]",0.15402,0.0094881,0.0002739,0.00039481,0.1366,0.1473,0.154,0.1607,0.1723,702.49
"eStar[3]",0.088844,0.02341,0.0006758,0.0014115,0.045439,0.071458,0.08853,0.1062,0.1322,340.55
"et50[1]",2.6819,1.2463,0.035978,0.04857,0.68854,1.7655,2.5215,3.4358,5.397,662.14
"et50[2]",11.835,2.6876,0.077585,0.11379,7.2967,9.991,11.575,13.38,17.761,659.75
"et50[3]",19.23,24.86,0.71764,1.0876,0.19519,2.0918,7.0395,27.82,87.369,515.63
